.label joystick_previous_state=$8d3
.label kernal_chrout=$ffd2
.label end_joystick=$8c6 {
}
.label joystick1_port=$dc00
.label screen_memory=$400
.label joystick2_port=$dc00
.label player_character=$8cf
.label joystick_state=$8d2
.label main=$80e
.label can_handle_joystick=$837 {
}
.label player_position=$8d0
.label game_loop=$813 {
}
